dataset,fetch_date
data_parliament_affairs_details,2017-09-20
unfetchable_affair_ids,2017-09-20
data_parliament_affairs,2017-10-04
data_parliament_councillors,2017-10-04
data_parliament_councillors_details,2017-10-04
